0|Albert Williams|(287)701-3703x99145|address
1|Gregory Cherry|001-036-532-7300x9832|address
2|Jennifer Leblanc|096.084.3938|address
3|Joshua Brown|629-690-7891|address
4|Rachel Callahan|001-308-703-9224x4322|address
5|Christopher Russo|(881)559-0285|address
6|Tiffany Barron|994-015-3069x1084|address
7|Thomas King|922.113.0738|address
8|Ashley Hudson DDS|001-631-121-2937x787|address
9|Laura Sherman|001-398-313-2849x349|address
